{
    "shell-version": ["3.4.1"],
    "uuid": "loadavg@selectnull.com",
    "name": "Display LoadAvg",
    "url": "http://selectnull.com/loadavg/", 
    "description": "Displays Load Average in Panel"
}
